Set,Filter,Filter weight (g),Mesocosm,Date,Dry Total Weight,Dry Filtrate Weight
0,1,0.0355,1,Oct 6 2020,0.0362,0.0007
0,2,0.0354,2,Oct 6 2020,0.036,0.0006
0,3,0.036,3,Oct 6 2020,0.037,0.0010
0,4,0.0368,4,Oct 6 2020,0.0382,0.0014
0,5,0.0349,,,,
0,6,0.0347,6,Oct 6 2020,0.0367,0.0020
0,7,0.0342,7,Oct 6 2020,0.036,0.0018
0,8,0.0372,8,Oct 6 2020,0.0381,0.0009
0,9,0.0355,9,Oct 6 2020,0.0375,0.0020
0,10,0.0345,10,Oct 6 2020,0.0366,0.0021
0,11,0.0342,11,Oct 6 2020,0.0362,0.0020
0,12,0.0342,12,Oct 6 2020,0.0366,0.0024
0,13,0.0341,13,Oct 6 2020,0.0366,0.0025
0,14,0.0361,14,Oct 6 2020,0.0362,0.0001
0,15,0.0366,15,Oct 6 2020,0.0365,-0.0001
0,16,0.0353,16,Oct 6 2020,0.0363,0.0010
0,17,0.0355,17,Oct 6 2020,0.0361,0.0006
0,18,0.0373,18,Oct 6 2020,0.0369,-0.0004
0,19,0.0358,LAC,Oct 6 2020,0.0362,0.0004
0,20,0.0356,,,,
0,21,0.0358,,,,
0,22,0.0351,5,Oct 6 2020,0.0362,
0,23,0.0351,,,,
0,24,0.0365,,,,
1,1,0.0377,1,Oct 26 2020,0.0382,
1,2,0.0368,2,Oct 26 2020,0.0373,
1,3,0.038,3,Oct 26 2020,0.0385,
1,4,0.037,4,Oct 26 2020,0.0375,
1,5,0.0366,5,Oct 26 2020,0.0373,
1,6,0.037,6,Oct 26 2020,0.0378,
1,7,0.038,NA,,,
1,8,0.0364,7,Oct 26 2020,0.0369,
1,9,0.037,9,Oct 26 2020,0.0364,
1,10,0.0362,10,Oct 26 2020,0.036,
1,11,0.0359,NA,,,
1,12,0.0372,12,Oct 26 2020,0.0372,
1,13,0.0366,13,Oct 26 2020,0.0366,
1,14,0.0368,14,Oct 26 2020,0.037,
1,15,0.037,15,Oct 26 2020,0.0369,
1,16,0.036,16,Oct 26 2020,0.0364,
1,17,0.0361,17,Oct 26 2020,0.0363,
1,18,0.0362,18,Oct 26 2020,0.0368,
1,19,0.0362,LAC,Oct 26 2020,0.061,
1,20,0.0365,8,Oct 26 2020,0.0363,
1,21,0.0371,11,Oct 26 2020,0.0368,
1,22,0.037,,,\\\,
1,23,0.0361,,,,
1,24,0.0363,,,,
3,1,,1,Nov 7 2020,,
3,2,,2,Nov 7 2020,,
3,3,,3,Nov 7 2020,,
3,4,,4,Nov 7 2020,,
3,5,,5,Nov 7 2020,,
3,6,,6,Nov 7 2020,,
3,7,,7,Nov 7 2020,,
3,8,,8,Nov 7 2020,,
3,9,,9,Nov 7 2020,,
3,10,,10,Nov 7 2020,,
3,11,,11,Nov 7 2020,,
3,12,,12,Nov 7 2020,,
3,13,,13,Nov 7 2020,,
3,14,,14,Nov 7 2020,,
3,15,,15,Nov 7 2020,,
3,16,,16,Nov 7 2020,,
3,17,,17,Nov 7 2020,,
3,18,,18,Nov 7 2020,,
3,lac,,LAC,Nov 7 2020,,